Model output test
…
In this document, we will implement two methods to store the model output. The first method will be a list of tibble, the second method is a single tibble. First there will be a brief description of each method. Then a brief explication of what each method do and how they works with the results they give. Then we will do some tests in order to decide which method is the best for the model output storage.

2 Methods presentation

2.1 First methods presentation

The first method is a list of tibble, lets print it to see how it is ! Well print a list which contains 2 levels of DoE and 6 usms.

# DoE, usm_number
li <- create_list(USM_list_1996,2,6,sim_data)
li

## $`1`
## $`1`$`bo96iN+_1`
## # A tibble: 289 x 11
##    Date                  jul lai_n masec_n mafruit  HR_1  HR_2  HR_3  HR_4  HR_5
##    <dttm>              <int> <dbl>   <dbl>   <dbl> <dbl> <dbl> <dbl> <dbl> <dbl>
##  1 1996-01-01 00:00:00     1     0       0       0  31.6  28.6  23.0     0     0
##  2 1996-01-02 00:00:00     2     0       0       0  31.6  28.6  23.0     0     0
##  3 1996-01-03 00:00:00     3     0       0       0  31.6  28.6  23.1     0     0
##  4 1996-01-04 00:00:00     4     0       0       0  31.6  28.6  23.7     0     0
##  5 1996-01-05 00:00:00     5     0       0       0  31.6  28.6  26.0     0     0
##  6 1996-01-06 00:00:00     6     0       0       0  31.6  28.6  26.0     0     0
##  7 1996-01-07 00:00:00     7     0       0       0  31.6  28.6  26.0     0     0
##  8 1996-01-08 00:00:00     8     0       0       0  31.6  28.6  26.0     0     0
##  9 1996-01-09 00:00:00     9     0       0       0  31.6  28.6  26.0     0     0
## 10 1996-01-10 00:00:00    10     0       0       0  31.6  28.6  26.0     0     0
## # ... with 279 more rows, and 1 more variable: resmes <dbl>
## 
## $`1`$`bo96iN+_2`
## # A tibble: 289 x 11
##    Date                  jul lai_n masec_n mafruit  HR_1  HR_2  HR_3  HR_4  HR_5
##    <dttm>              <int> <dbl>   <dbl>   <dbl> <dbl> <dbl> <dbl> <dbl> <dbl>
##  1 1996-01-01 00:00:00     1     0       0       0  31.6  28.6  23.0     0     0
##  2 1996-01-02 00:00:00     2     0       0       0  31.6  28.6  23.0     0     0
##  3 1996-01-03 00:00:00     3     0       0       0  31.6  28.6  23.1     0     0
##  4 1996-01-04 00:00:00     4     0       0       0  31.6  28.6  23.7     0     0
##  5 1996-01-05 00:00:00     5     0       0       0  31.6  28.6  26.0     0     0
##  6 1996-01-06 00:00:00     6     0       0       0  31.6  28.6  26.0     0     0
##  7 1996-01-07 00:00:00     7     0       0       0  31.6  28.6  26.0     0     0
##  8 1996-01-08 00:00:00     8     0       0       0  31.6  28.6  26.0     0     0
##  9 1996-01-09 00:00:00     9     0       0       0  31.6  28.6  26.0     0     0
## 10 1996-01-10 00:00:00    10     0       0       0  31.6  28.6  26.0     0     0
## # ... with 279 more rows, and 1 more variable: resmes <dbl>
## 
## $`1`$`lu96iN+_1`
## # A tibble: 289 x 11
##    Date                  jul lai_n masec_n mafruit  HR_1  HR_2  HR_3  HR_4  HR_5
##    <dttm>              <int> <dbl>   <dbl>   <dbl> <dbl> <dbl> <dbl> <dbl> <dbl>
##  1 1996-01-01 00:00:00     1     0       0       0  22.5  25.4  23.7  26.8     0
##  2 1996-01-02 00:00:00     2     0       0       0  22.5  25.4  23.7  26.8     0
##  3 1996-01-03 00:00:00     3     0       0       0  22.5  25.4  23.8  26.8     0
##  4 1996-01-04 00:00:00     4     0       0       0  22.5  25.4  24.4  26.8     0
##  5 1996-01-05 00:00:00     5     0       0       0  22.5  25.4  25.8  28.4     0
##  6 1996-01-06 00:00:00     6     0       0       0  22.5  25.4  25.8  28.7     0
##  7 1996-01-07 00:00:00     7     0       0       0  22.5  25.4  25.8  28.7     0
##  8 1996-01-08 00:00:00     8     0       0       0  22.5  25.4  25.8  28.7     0
##  9 1996-01-09 00:00:00     9     0       0       0  22.5  25.4  25.8  28.7     0
## 10 1996-01-10 00:00:00    10     0       0       0  22.5  25.4  25.8  28.7     0
## # ... with 279 more rows, and 1 more variable: resmes <dbl>
## 
## $`1`$`lu96iN+_2`
## # A tibble: 289 x 11
##    Date                  jul lai_n masec_n mafruit  HR_1  HR_2  HR_3  HR_4  HR_5
##    <dttm>              <int> <dbl>   <dbl>   <dbl> <dbl> <dbl> <dbl> <dbl> <dbl>
##  1 1996-01-01 00:00:00     1     0       0       0  22.5  25.4  23.7  26.8     0
##  2 1996-01-02 00:00:00     2     0       0       0  22.5  25.4  23.7  26.8     0
##  3 1996-01-03 00:00:00     3     0       0       0  22.5  25.4  23.8  26.8     0
##  4 1996-01-04 00:00:00     4     0       0       0  22.5  25.4  24.4  26.8     0
##  5 1996-01-05 00:00:00     5     0       0       0  22.5  25.4  25.8  28.4     0
##  6 1996-01-06 00:00:00     6     0       0       0  22.5  25.4  25.8  28.7     0
##  7 1996-01-07 00:00:00     7     0       0       0  22.5  25.4  25.8  28.7     0
##  8 1996-01-08 00:00:00     8     0       0       0  22.5  25.4  25.8  28.7     0
##  9 1996-01-09 00:00:00     9     0       0       0  22.5  25.4  25.8  28.7     0
## 10 1996-01-10 00:00:00    10     0       0       0  22.5  25.4  25.8  28.7     0
## # ... with 279 more rows, and 1 more variable: resmes <dbl>
## 
## $`1`$lu96iN6_1
## # A tibble: 289 x 11
##    Date                  jul lai_n masec_n mafruit  HR_1  HR_2  HR_3  HR_4  HR_5
##    <dttm>              <int> <dbl>   <dbl>   <dbl> <dbl> <dbl> <dbl> <dbl> <dbl>
##  1 1996-01-01 00:00:00     1     0       0       0  22.5  25.4  23.7  26.8     0
##  2 1996-01-02 00:00:00     2     0       0       0  22.5  25.4  23.7  26.8     0
##  3 1996-01-03 00:00:00     3     0       0       0  22.5  25.4  23.8  26.8     0
##  4 1996-01-04 00:00:00     4     0       0       0  22.5  25.4  24.4  26.8     0
##  5 1996-01-05 00:00:00     5     0       0       0  22.5  25.4  25.8  28.4     0
##  6 1996-01-06 00:00:00     6     0       0       0  22.5  25.4  25.8  28.7     0
##  7 1996-01-07 00:00:00     7     0       0       0  22.5  25.4  25.8  28.7     0
##  8 1996-01-08 00:00:00     8     0       0       0  22.5  25.4  25.8  28.7     0
##  9 1996-01-09 00:00:00     9     0       0       0  22.5  25.4  25.8  28.7     0
## 10 1996-01-10 00:00:00    10     0       0       0  22.5  25.4  25.8  28.7     0
## # ... with 279 more rows, and 1 more variable: resmes <dbl>
## 
## $`1`$lu96iN6_2
## # A tibble: 289 x 11
##    Date                  jul lai_n masec_n mafruit  HR_1  HR_2  HR_3  HR_4  HR_5
##    <dttm>              <int> <dbl>   <dbl>   <dbl> <dbl> <dbl> <dbl> <dbl> <dbl>
##  1 1996-01-01 00:00:00     1     0       0       0  22.5  25.4  23.7  26.8     0
##  2 1996-01-02 00:00:00     2     0       0       0  22.5  25.4  23.7  26.8     0
##  3 1996-01-03 00:00:00     3     0       0       0  22.5  25.4  23.8  26.8     0
##  4 1996-01-04 00:00:00     4     0       0       0  22.5  25.4  24.4  26.8     0
##  5 1996-01-05 00:00:00     5     0       0       0  22.5  25.4  25.8  28.4     0
##  6 1996-01-06 00:00:00     6     0       0       0  22.5  25.4  25.8  28.7     0
##  7 1996-01-07 00:00:00     7     0       0       0  22.5  25.4  25.8  28.7     0
##  8 1996-01-08 00:00:00     8     0       0       0  22.5  25.4  25.8  28.7     0
##  9 1996-01-09 00:00:00     9     0       0       0  22.5  25.4  25.8  28.7     0
## 10 1996-01-10 00:00:00    10     0       0       0  22.5  25.4  25.8  28.7     0
## # ... with 279 more rows, and 1 more variable: resmes <dbl>
## 
## 
## $`2`
## $`2`$`bo96iN+_1`
## # A tibble: 289 x 11
##    Date                  jul lai_n masec_n mafruit  HR_1  HR_2  HR_3  HR_4  HR_5
##    <dttm>              <int> <dbl>   <dbl>   <dbl> <dbl> <dbl> <dbl> <dbl> <dbl>
##  1 1996-01-01 00:00:00     1     0       0       0  31.6  28.6  23.0     0     0
##  2 1996-01-02 00:00:00     2     0       0       0  31.6  28.6  23.0     0     0
##  3 1996-01-03 00:00:00     3     0       0       0  31.6  28.6  23.1     0     0
##  4 1996-01-04 00:00:00     4     0       0       0  31.6  28.6  23.7     0     0
##  5 1996-01-05 00:00:00     5     0       0       0  31.6  28.6  26.0     0     0
##  6 1996-01-06 00:00:00     6     0       0       0  31.6  28.6  26.0     0     0
##  7 1996-01-07 00:00:00     7     0       0       0  31.6  28.6  26.0     0     0
##  8 1996-01-08 00:00:00     8     0       0       0  31.6  28.6  26.0     0     0
##  9 1996-01-09 00:00:00     9     0       0       0  31.6  28.6  26.0     0     0
## 10 1996-01-10 00:00:00    10     0       0       0  31.6  28.6  26.0     0     0
## # ... with 279 more rows, and 1 more variable: resmes <dbl>
## 
## $`2`$`bo96iN+_2`
## # A tibble: 289 x 11
##    Date                  jul lai_n masec_n mafruit  HR_1  HR_2  HR_3  HR_4  HR_5
##    <dttm>              <int> <dbl>   <dbl>   <dbl> <dbl> <dbl> <dbl> <dbl> <dbl>
##  1 1996-01-01 00:00:00     1     0       0       0  31.6  28.6  23.0     0     0
##  2 1996-01-02 00:00:00     2     0       0       0  31.6  28.6  23.0     0     0
##  3 1996-01-03 00:00:00     3     0       0       0  31.6  28.6  23.1     0     0
##  4 1996-01-04 00:00:00     4     0       0       0  31.6  28.6  23.7     0     0
##  5 1996-01-05 00:00:00     5     0       0       0  31.6  28.6  26.0     0     0
##  6 1996-01-06 00:00:00     6     0       0       0  31.6  28.6  26.0     0     0
##  7 1996-01-07 00:00:00     7     0       0       0  31.6  28.6  26.0     0     0
##  8 1996-01-08 00:00:00     8     0       0       0  31.6  28.6  26.0     0     0
##  9 1996-01-09 00:00:00     9     0       0       0  31.6  28.6  26.0     0     0
## 10 1996-01-10 00:00:00    10     0       0       0  31.6  28.6  26.0     0     0
## # ... with 279 more rows, and 1 more variable: resmes <dbl>
## 
## $`2`$`lu96iN+_1`
## # A tibble: 289 x 11
##    Date                  jul lai_n masec_n mafruit  HR_1  HR_2  HR_3  HR_4  HR_5
##    <dttm>              <int> <dbl>   <dbl>   <dbl> <dbl> <dbl> <dbl> <dbl> <dbl>
##  1 1996-01-01 00:00:00     1     0       0       0  22.5  25.4  23.7  26.8     0
##  2 1996-01-02 00:00:00     2     0       0       0  22.5  25.4  23.7  26.8     0
##  3 1996-01-03 00:00:00     3     0       0       0  22.5  25.4  23.8  26.8     0
##  4 1996-01-04 00:00:00     4     0       0       0  22.5  25.4  24.4  26.8     0
##  5 1996-01-05 00:00:00     5     0       0       0  22.5  25.4  25.8  28.4     0
##  6 1996-01-06 00:00:00     6     0       0       0  22.5  25.4  25.8  28.7     0
##  7 1996-01-07 00:00:00     7     0       0       0  22.5  25.4  25.8  28.7     0
##  8 1996-01-08 00:00:00     8     0       0       0  22.5  25.4  25.8  28.7     0
##  9 1996-01-09 00:00:00     9     0       0       0  22.5  25.4  25.8  28.7     0
## 10 1996-01-10 00:00:00    10     0       0       0  22.5  25.4  25.8  28.7     0
## # ... with 279 more rows, and 1 more variable: resmes <dbl>
## 
## $`2`$`lu96iN+_2`
## # A tibble: 289 x 11
##    Date                  jul lai_n masec_n mafruit  HR_1  HR_2  HR_3  HR_4  HR_5
##    <dttm>              <int> <dbl>   <dbl>   <dbl> <dbl> <dbl> <dbl> <dbl> <dbl>
##  1 1996-01-01 00:00:00     1     0       0       0  22.5  25.4  23.7  26.8     0
##  2 1996-01-02 00:00:00     2     0       0       0  22.5  25.4  23.7  26.8     0
##  3 1996-01-03 00:00:00     3     0       0       0  22.5  25.4  23.8  26.8     0
##  4 1996-01-04 00:00:00     4     0       0       0  22.5  25.4  24.4  26.8     0
##  5 1996-01-05 00:00:00     5     0       0       0  22.5  25.4  25.8  28.4     0
##  6 1996-01-06 00:00:00     6     0       0       0  22.5  25.4  25.8  28.7     0
##  7 1996-01-07 00:00:00     7     0       0       0  22.5  25.4  25.8  28.7     0
##  8 1996-01-08 00:00:00     8     0       0       0  22.5  25.4  25.8  28.7     0
##  9 1996-01-09 00:00:00     9     0       0       0  22.5  25.4  25.8  28.7     0
## 10 1996-01-10 00:00:00    10     0       0       0  22.5  25.4  25.8  28.7     0
## # ... with 279 more rows, and 1 more variable: resmes <dbl>
## 
## $`2`$lu96iN6_1
## # A tibble: 289 x 11
##    Date                  jul lai_n masec_n mafruit  HR_1  HR_2  HR_3  HR_4  HR_5
##    <dttm>              <int> <dbl>   <dbl>   <dbl> <dbl> <dbl> <dbl> <dbl> <dbl>
##  1 1996-01-01 00:00:00     1     0       0       0  22.5  25.4  23.7  26.8     0
##  2 1996-01-02 00:00:00     2     0       0       0  22.5  25.4  23.7  26.8     0
##  3 1996-01-03 00:00:00     3     0       0       0  22.5  25.4  23.8  26.8     0
##  4 1996-01-04 00:00:00     4     0       0       0  22.5  25.4  24.4  26.8     0
##  5 1996-01-05 00:00:00     5     0       0       0  22.5  25.4  25.8  28.4     0
##  6 1996-01-06 00:00:00     6     0       0       0  22.5  25.4  25.8  28.7     0
##  7 1996-01-07 00:00:00     7     0       0       0  22.5  25.4  25.8  28.7     0
##  8 1996-01-08 00:00:00     8     0       0       0  22.5  25.4  25.8  28.7     0
##  9 1996-01-09 00:00:00     9     0       0       0  22.5  25.4  25.8  28.7     0
## 10 1996-01-10 00:00:00    10     0       0       0  22.5  25.4  25.8  28.7     0
## # ... with 279 more rows, and 1 more variable: resmes <dbl>
## 
## $`2`$lu96iN6_2
## # A tibble: 289 x 11
##    Date                  jul lai_n masec_n mafruit  HR_1  HR_2  HR_3  HR_4  HR_5
##    <dttm>              <int> <dbl>   <dbl>   <dbl> <dbl> <dbl> <dbl> <dbl> <dbl>
##  1 1996-01-01 00:00:00     1     0       0       0  22.5  25.4  23.7  26.8     0
##  2 1996-01-02 00:00:00     2     0       0       0  22.5  25.4  23.7  26.8     0
##  3 1996-01-03 00:00:00     3     0       0       0  22.5  25.4  23.8  26.8     0
##  4 1996-01-04 00:00:00     4     0       0       0  22.5  25.4  24.4  26.8     0
##  5 1996-01-05 00:00:00     5     0       0       0  22.5  25.4  25.8  28.4     0
##  6 1996-01-06 00:00:00     6     0       0       0  22.5  25.4  25.8  28.7     0
##  7 1996-01-07 00:00:00     7     0       0       0  22.5  25.4  25.8  28.7     0
##  8 1996-01-08 00:00:00     8     0       0       0  22.5  25.4  25.8  28.7     0
##  9 1996-01-09 00:00:00     9     0       0       0  22.5  25.4  25.8  28.7     0
## 10 1996-01-10 00:00:00    10     0       0       0  22.5  25.4  25.8  28.7     0
## # ... with 279 more rows, and 1 more variable: resmes <dbl>

2.2 Second methods presentation

The second method is a single tibble, lets print it to see how it is ! Well print a single tibble which contains two levels of DoE and 6 usms.

# DoE, usm_number
tb <- create_tibble(USM_list_1996,2,6,sim_data)

## # A tibble: 3,468 x 13
##    Name  Date                  jul lai_n masec_n mafruit  HR_1  HR_2  HR_3  HR_4
##    <chr> <dttm>              <int> <dbl>   <dbl>   <dbl> <dbl> <dbl> <dbl> <dbl>
##  1 ""    1996-10-15 00:00:00     0     0       0       0     0     0     0     0
##  2 ""    1996-10-15 00:00:00     0     0       0       0     0     0     0     0
##  3 ""    1996-10-15 00:00:00     0     0       0       0     0     0     0     0
##  4 ""    1996-10-15 00:00:00     0     0       0       0     0     0     0     0
##  5 ""    1996-10-15 00:00:00     0     0       0       0     0     0     0     0
##  6 ""    1996-10-15 00:00:00     0     0       0       0     0     0     0     0
##  7 ""    1996-10-15 00:00:00     0     0       0       0     0     0     0     0
##  8 ""    1996-10-15 00:00:00     0     0       0       0     0     0     0     0
##  9 ""    1996-10-15 00:00:00     0     0       0       0     0     0     0     0
## 10 ""    1996-10-15 00:00:00     0     0       0       0     0     0     0     0
## # ... with 3,458 more rows, and 3 more variables: HR_5 <dbl>, resmes <dbl>,
## #   DoE <int>

tb

## # A tibble: 3,468 x 13
##    Name  Date                  jul lai_n masec_n mafruit  HR_1  HR_2  HR_3  HR_4
##    <chr> <dttm>              <int> <dbl>   <dbl>   <dbl> <dbl> <dbl> <dbl> <dbl>
##  1 bo96~ 1996-01-01 00:00:00     1     0       0       0  31.6  28.6  23.0     0
##  2 bo96~ 1996-01-02 00:00:00     2     0       0       0  31.6  28.6  23.0     0
##  3 bo96~ 1996-01-03 00:00:00     3     0       0       0  31.6  28.6  23.1     0
##  4 bo96~ 1996-01-04 00:00:00     4     0       0       0  31.6  28.6  23.7     0
##  5 bo96~ 1996-01-05 00:00:00     5     0       0       0  31.6  28.6  26.0     0
##  6 bo96~ 1996-01-06 00:00:00     6     0       0       0  31.6  28.6  26.0     0
##  7 bo96~ 1996-01-07 00:00:00     7     0       0       0  31.6  28.6  26.0     0
##  8 bo96~ 1996-01-08 00:00:00     8     0       0       0  31.6  28.6  26.0     0
##  9 bo96~ 1996-01-09 00:00:00     9     0       0       0  31.6  28.6  26.0     0
## 10 bo96~ 1996-01-10 00:00:00    10     0       0       0  31.6  28.6  26.0     0
## # ... with 3,458 more rows, and 3 more variables: HR_5 <dbl>, resmes <dbl>,
## #   DoE <int>

3 Use cases examples and results

Now well see what gives each functions and how to call them.

3.1 Optimization function

Were beginning with the optimization function. This function returns all the values for a variable with the dates. It takes as parameters a DoE level, a usm name and a variable name.

res <- tibble_get_dates_and_var_values(tb,1,"bo96iN+_2","HR_1")
res

## # A tibble: 289 x 2
##    Date                 HR_1
##    <dttm>              <dbl>
##  1 1996-01-01 00:00:00  31.6
##  2 1996-01-02 00:00:00  31.6
##  3 1996-01-03 00:00:00  31.6
##  4 1996-01-04 00:00:00  31.6
##  5 1996-01-05 00:00:00  31.6
##  6 1996-01-06 00:00:00  31.6
##  7 1996-01-07 00:00:00  31.6
##  8 1996-01-08 00:00:00  31.6
##  9 1996-01-09 00:00:00  31.6
## 10 1996-01-10 00:00:00  31.6
## # ... with 279 more rows

li2 <- list_get_dates_and_var_values(li,1,"bo96iN+_2","HR_1")
li2

## # A tibble: 289 x 2
##    Date                 HR_1
##    <dttm>              <dbl>
##  1 1996-01-01 00:00:00  31.6
##  2 1996-01-02 00:00:00  31.6
##  3 1996-01-03 00:00:00  31.6
##  4 1996-01-04 00:00:00  31.6
##  5 1996-01-05 00:00:00  31.6
##  6 1996-01-06 00:00:00  31.6
##  7 1996-01-07 00:00:00  31.6
##  8 1996-01-08 00:00:00  31.6
##  9 1996-01-09 00:00:00  31.6
## 10 1996-01-10 00:00:00  31.6
## # ... with 279 more rows
…
