Model output test
…
There are two parts in this document. The first is a description part where well print the storage methods, in order to make you understand how it is store inside the differents methods. The second part is the tests part where we first describe the functions used for extraction and their use cases. And then, the results of the extraction tests for each use case.

2 Methods

Lets print the storage methods. For this example, the methods contain 2 DoEs level and 6 Usms.

2.1 First method : List

# DoE, usm_number
li <- create_list(USM_list_1996,2,6,sim_data)
li

## $`1`
## $`1`$`bo96iN+_1`
## # A tibble: 289 x 11
##    Date                  jul lai_n masec_n mafruit  HR_1  HR_2  HR_3  HR_4  HR_5
##    <dttm>              <int> <dbl>   <dbl>   <dbl> <dbl> <dbl> <dbl> <dbl> <dbl>
##  1 1996-01-01 00:00:00     1     0       0       0  31.6  28.6  23.0     0     0
##  2 1996-01-02 00:00:00     2     0       0       0  31.6  28.6  23.0     0     0
##  3 1996-01-03 00:00:00     3     0       0       0  31.6  28.6  23.1     0     0
##  4 1996-01-04 00:00:00     4     0       0       0  31.6  28.6  23.7     0     0
##  5 1996-01-05 00:00:00     5     0       0       0  31.6  28.6  26.0     0     0
##  6 1996-01-06 00:00:00     6     0       0       0  31.6  28.6  26.0     0     0
##  7 1996-01-07 00:00:00     7     0       0       0  31.6  28.6  26.0     0     0
##  8 1996-01-08 00:00:00     8     0       0       0  31.6  28.6  26.0     0     0
##  9 1996-01-09 00:00:00     9     0       0       0  31.6  28.6  26.0     0     0
## 10 1996-01-10 00:00:00    10     0       0       0  31.6  28.6  26.0     0     0
## # ... with 279 more rows, and 1 more variable: resmes <dbl>
## 
## $`1`$`bo96iN+_2`
## # A tibble: 289 x 11
##    Date                  jul lai_n masec_n mafruit  HR_1  HR_2  HR_3  HR_4  HR_5
##    <dttm>              <int> <dbl>   <dbl>   <dbl> <dbl> <dbl> <dbl> <dbl> <dbl>
##  1 1996-01-01 00:00:00     1     0       0       0  31.6  28.6  23.0     0     0
##  2 1996-01-02 00:00:00     2     0       0       0  31.6  28.6  23.0     0     0
##  3 1996-01-03 00:00:00     3     0       0       0  31.6  28.6  23.1     0     0
##  4 1996-01-04 00:00:00     4     0       0       0  31.6  28.6  23.7     0     0
##  5 1996-01-05 00:00:00     5     0       0       0  31.6  28.6  26.0     0     0
##  6 1996-01-06 00:00:00     6     0       0       0  31.6  28.6  26.0     0     0
##  7 1996-01-07 00:00:00     7     0       0       0  31.6  28.6  26.0     0     0
##  8 1996-01-08 00:00:00     8     0       0       0  31.6  28.6  26.0     0     0
##  9 1996-01-09 00:00:00     9     0       0       0  31.6  28.6  26.0     0     0
## 10 1996-01-10 00:00:00    10     0       0       0  31.6  28.6  26.0     0     0
## # ... with 279 more rows, and 1 more variable: resmes <dbl>
## 
## $`1`$`lu96iN+_1`
## # A tibble: 289 x 11
##    Date                  jul lai_n masec_n mafruit  HR_1  HR_2  HR_3  HR_4  HR_5
##    <dttm>              <int> <dbl>   <dbl>   <dbl> <dbl> <dbl> <dbl> <dbl> <dbl>
##  1 1996-01-01 00:00:00     1     0       0       0  22.5  25.4  23.7  26.8     0
##  2 1996-01-02 00:00:00     2     0       0       0  22.5  25.4  23.7  26.8     0
##  3 1996-01-03 00:00:00     3     0       0       0  22.5  25.4  23.8  26.8     0
##  4 1996-01-04 00:00:00     4     0       0       0  22.5  25.4  24.4  26.8     0
##  5 1996-01-05 00:00:00     5     0       0       0  22.5  25.4  25.8  28.4     0
##  6 1996-01-06 00:00:00     6     0       0       0  22.5  25.4  25.8  28.7     0
##  7 1996-01-07 00:00:00     7     0       0       0  22.5  25.4  25.8  28.7     0
##  8 1996-01-08 00:00:00     8     0       0       0  22.5  25.4  25.8  28.7     0
##  9 1996-01-09 00:00:00     9     0       0       0  22.5  25.4  25.8  28.7     0
## 10 1996-01-10 00:00:00    10     0       0       0  22.5  25.4  25.8  28.7     0
## # ... with 279 more rows, and 1 more variable: resmes <dbl>
## 
## $`1`$`lu96iN+_2`
## # A tibble: 289 x 11
##    Date                  jul lai_n masec_n mafruit  HR_1  HR_2  HR_3  HR_4  HR_5
##    <dttm>              <int> <dbl>   <dbl>   <dbl> <dbl> <dbl> <dbl> <dbl> <dbl>
##  1 1996-01-01 00:00:00     1     0       0       0  22.5  25.4  23.7  26.8     0
##  2 1996-01-02 00:00:00     2     0       0       0  22.5  25.4  23.7  26.8     0
##  3 1996-01-03 00:00:00     3     0       0       0  22.5  25.4  23.8  26.8     0
##  4 1996-01-04 00:00:00     4     0       0       0  22.5  25.4  24.4  26.8     0
##  5 1996-01-05 00:00:00     5     0       0       0  22.5  25.4  25.8  28.4     0
##  6 1996-01-06 00:00:00     6     0       0       0  22.5  25.4  25.8  28.7     0
##  7 1996-01-07 00:00:00     7     0       0       0  22.5  25.4  25.8  28.7     0
##  8 1996-01-08 00:00:00     8     0       0       0  22.5  25.4  25.8  28.7     0
##  9 1996-01-09 00:00:00     9     0       0       0  22.5  25.4  25.8  28.7     0
## 10 1996-01-10 00:00:00    10     0       0       0  22.5  25.4  25.8  28.7     0
## # ... with 279 more rows, and 1 more variable: resmes <dbl>
## 
## $`1`$lu96iN6_1
## # A tibble: 289 x 11
##    Date                  jul lai_n masec_n mafruit  HR_1  HR_2  HR_3  HR_4  HR_5
##    <dttm>              <int> <dbl>   <dbl>   <dbl> <dbl> <dbl> <dbl> <dbl> <dbl>
##  1 1996-01-01 00:00:00     1     0       0       0  22.5  25.4  23.7  26.8     0
##  2 1996-01-02 00:00:00     2     0       0       0  22.5  25.4  23.7  26.8     0
##  3 1996-01-03 00:00:00     3     0       0       0  22.5  25.4  23.8  26.8     0
##  4 1996-01-04 00:00:00     4     0       0       0  22.5  25.4  24.4  26.8     0
##  5 1996-01-05 00:00:00     5     0       0       0  22.5  25.4  25.8  28.4     0
##  6 1996-01-06 00:00:00     6     0       0       0  22.5  25.4  25.8  28.7     0
##  7 1996-01-07 00:00:00     7     0       0       0  22.5  25.4  25.8  28.7     0
##  8 1996-01-08 00:00:00     8     0       0       0  22.5  25.4  25.8  28.7     0
##  9 1996-01-09 00:00:00     9     0       0       0  22.5  25.4  25.8  28.7     0
## 10 1996-01-10 00:00:00    10     0       0       0  22.5  25.4  25.8  28.7     0
## # ... with 279 more rows, and 1 more variable: resmes <dbl>
## 
## $`1`$lu96iN6_2
## # A tibble: 289 x 11
##    Date                  jul lai_n masec_n mafruit  HR_1  HR_2  HR_3  HR_4  HR_5
##    <dttm>              <int> <dbl>   <dbl>   <dbl> <dbl> <dbl> <dbl> <dbl> <dbl>
##  1 1996-01-01 00:00:00     1     0       0       0  22.5  25.4  23.7  26.8     0
##  2 1996-01-02 00:00:00     2     0       0       0  22.5  25.4  23.7  26.8     0
##  3 1996-01-03 00:00:00     3     0       0       0  22.5  25.4  23.8  26.8     0
##  4 1996-01-04 00:00:00     4     0       0       0  22.5  25.4  24.4  26.8     0
##  5 1996-01-05 00:00:00     5     0       0       0  22.5  25.4  25.8  28.4     0
##  6 1996-01-06 00:00:00     6     0       0       0  22.5  25.4  25.8  28.7     0
##  7 1996-01-07 00:00:00     7     0       0       0  22.5  25.4  25.8  28.7     0
##  8 1996-01-08 00:00:00     8     0       0       0  22.5  25.4  25.8  28.7     0
##  9 1996-01-09 00:00:00     9     0       0       0  22.5  25.4  25.8  28.7     0
## 10 1996-01-10 00:00:00    10     0       0       0  22.5  25.4  25.8  28.7     0
## # ... with 279 more rows, and 1 more variable: resmes <dbl>
## 
## 
## $`2`
## $`2`$`bo96iN+_1`
## # A tibble: 289 x 11
##    Date                  jul lai_n masec_n mafruit  HR_1  HR_2  HR_3  HR_4  HR_5
##    <dttm>              <int> <dbl>   <dbl>   <dbl> <dbl> <dbl> <dbl> <dbl> <dbl>
##  1 1996-01-01 00:00:00     1     0       0       0  31.6  28.6  23.0     0     0
##  2 1996-01-02 00:00:00     2     0       0       0  31.6  28.6  23.0     0     0
##  3 1996-01-03 00:00:00     3     0       0       0  31.6  28.6  23.1     0     0
##  4 1996-01-04 00:00:00     4     0       0       0  31.6  28.6  23.7     0     0
##  5 1996-01-05 00:00:00     5     0       0       0  31.6  28.6  26.0     0     0
##  6 1996-01-06 00:00:00     6     0       0       0  31.6  28.6  26.0     0     0
##  7 1996-01-07 00:00:00     7     0       0       0  31.6  28.6  26.0     0     0
##  8 1996-01-08 00:00:00     8     0       0       0  31.6  28.6  26.0     0     0
##  9 1996-01-09 00:00:00     9     0       0       0  31.6  28.6  26.0     0     0
## 10 1996-01-10 00:00:00    10     0       0       0  31.6  28.6  26.0     0     0
## # ... with 279 more rows, and 1 more variable: resmes <dbl>
## 
## $`2`$`bo96iN+_2`
## # A tibble: 289 x 11
##    Date                  jul lai_n masec_n mafruit  HR_1  HR_2  HR_3  HR_4  HR_5
##    <dttm>              <int> <dbl>   <dbl>   <dbl> <dbl> <dbl> <dbl> <dbl> <dbl>
##  1 1996-01-01 00:00:00     1     0       0       0  31.6  28.6  23.0     0     0
##  2 1996-01-02 00:00:00     2     0       0       0  31.6  28.6  23.0     0     0
##  3 1996-01-03 00:00:00     3     0       0       0  31.6  28.6  23.1     0     0
##  4 1996-01-04 00:00:00     4     0       0       0  31.6  28.6  23.7     0     0
##  5 1996-01-05 00:00:00     5     0       0       0  31.6  28.6  26.0     0     0
##  6 1996-01-06 00:00:00     6     0       0       0  31.6  28.6  26.0     0     0
##  7 1996-01-07 00:00:00     7     0       0       0  31.6  28.6  26.0     0     0
##  8 1996-01-08 00:00:00     8     0       0       0  31.6  28.6  26.0     0     0
##  9 1996-01-09 00:00:00     9     0       0       0  31.6  28.6  26.0     0     0
## 10 1996-01-10 00:00:00    10     0       0       0  31.6  28.6  26.0     0     0
## # ... with 279 more rows, and 1 more variable: resmes <dbl>
## 
## $`2`$`lu96iN+_1`
## # A tibble: 289 x 11
##    Date                  jul lai_n masec_n mafruit  HR_1  HR_2  HR_3  HR_4  HR_5
##    <dttm>              <int> <dbl>   <dbl>   <dbl> <dbl> <dbl> <dbl> <dbl> <dbl>
##  1 1996-01-01 00:00:00     1     0       0       0  22.5  25.4  23.7  26.8     0
##  2 1996-01-02 00:00:00     2     0       0       0  22.5  25.4  23.7  26.8     0
##  3 1996-01-03 00:00:00     3     0       0       0  22.5  25.4  23.8  26.8     0
##  4 1996-01-04 00:00:00     4     0       0       0  22.5  25.4  24.4  26.8     0
##  5 1996-01-05 00:00:00     5     0       0       0  22.5  25.4  25.8  28.4     0
##  6 1996-01-06 00:00:00     6     0       0       0  22.5  25.4  25.8  28.7     0
##  7 1996-01-07 00:00:00     7     0       0       0  22.5  25.4  25.8  28.7     0
##  8 1996-01-08 00:00:00     8     0       0       0  22.5  25.4  25.8  28.7     0
##  9 1996-01-09 00:00:00     9     0       0       0  22.5  25.4  25.8  28.7     0
## 10 1996-01-10 00:00:00    10     0       0       0  22.5  25.4  25.8  28.7     0
## # ... with 279 more rows, and 1 more variable: resmes <dbl>
## 
## $`2`$`lu96iN+_2`
## # A tibble: 289 x 11
##    Date                  jul lai_n masec_n mafruit  HR_1  HR_2  HR_3  HR_4  HR_5
##    <dttm>              <int> <dbl>   <dbl>   <dbl> <dbl> <dbl> <dbl> <dbl> <dbl>
##  1 1996-01-01 00:00:00     1     0       0       0  22.5  25.4  23.7  26.8     0
##  2 1996-01-02 00:00:00     2     0       0       0  22.5  25.4  23.7  26.8     0
##  3 1996-01-03 00:00:00     3     0       0       0  22.5  25.4  23.8  26.8     0
##  4 1996-01-04 00:00:00     4     0       0       0  22.5  25.4  24.4  26.8     0
##  5 1996-01-05 00:00:00     5     0       0       0  22.5  25.4  25.8  28.4     0
##  6 1996-01-06 00:00:00     6     0       0       0  22.5  25.4  25.8  28.7     0
##  7 1996-01-07 00:00:00     7     0       0       0  22.5  25.4  25.8  28.7     0
##  8 1996-01-08 00:00:00     8     0       0       0  22.5  25.4  25.8  28.7     0
##  9 1996-01-09 00:00:00     9     0       0       0  22.5  25.4  25.8  28.7     0
## 10 1996-01-10 00:00:00    10     0       0       0  22.5  25.4  25.8  28.7     0
## # ... with 279 more rows, and 1 more variable: resmes <dbl>
## 
## $`2`$lu96iN6_1
## # A tibble: 289 x 11
##    Date                  jul lai_n masec_n mafruit  HR_1  HR_2  HR_3  HR_4  HR_5
##    <dttm>              <int> <dbl>   <dbl>   <dbl> <dbl> <dbl> <dbl> <dbl> <dbl>
##  1 1996-01-01 00:00:00     1     0       0       0  22.5  25.4  23.7  26.8     0
##  2 1996-01-02 00:00:00     2     0       0       0  22.5  25.4  23.7  26.8     0
##  3 1996-01-03 00:00:00     3     0       0       0  22.5  25.4  23.8  26.8     0
##  4 1996-01-04 00:00:00     4     0       0       0  22.5  25.4  24.4  26.8     0
##  5 1996-01-05 00:00:00     5     0       0       0  22.5  25.4  25.8  28.4     0
##  6 1996-01-06 00:00:00     6     0       0       0  22.5  25.4  25.8  28.7     0
##  7 1996-01-07 00:00:00     7     0       0       0  22.5  25.4  25.8  28.7     0
##  8 1996-01-08 00:00:00     8     0       0       0  22.5  25.4  25.8  28.7     0
##  9 1996-01-09 00:00:00     9     0       0       0  22.5  25.4  25.8  28.7     0
## 10 1996-01-10 00:00:00    10     0       0       0  22.5  25.4  25.8  28.7     0
## # ... with 279 more rows, and 1 more variable: resmes <dbl>
## 
## $`2`$lu96iN6_2
## # A tibble: 289 x 11
##    Date                  jul lai_n masec_n mafruit  HR_1  HR_2  HR_3  HR_4  HR_5
##    <dttm>              <int> <dbl>   <dbl>   <dbl> <dbl> <dbl> <dbl> <dbl> <dbl>
##  1 1996-01-01 00:00:00     1     0       0       0  22.5  25.4  23.7  26.8     0
##  2 1996-01-02 00:00:00     2     0       0       0  22.5  25.4  23.7  26.8     0
##  3 1996-01-03 00:00:00     3     0       0       0  22.5  25.4  23.8  26.8     0
##  4 1996-01-04 00:00:00     4     0       0       0  22.5  25.4  24.4  26.8     0
##  5 1996-01-05 00:00:00     5     0       0       0  22.5  25.4  25.8  28.4     0
##  6 1996-01-06 00:00:00     6     0       0       0  22.5  25.4  25.8  28.7     0
##  7 1996-01-07 00:00:00     7     0       0       0  22.5  25.4  25.8  28.7     0
##  8 1996-01-08 00:00:00     8     0       0       0  22.5  25.4  25.8  28.7     0
##  9 1996-01-09 00:00:00     9     0       0       0  22.5  25.4  25.8  28.7     0
## 10 1996-01-10 00:00:00    10     0       0       0  22.5  25.4  25.8  28.7     0
## # ... with 279 more rows, and 1 more variable: resmes <dbl>

2.2 Second method : Tibble

# DoE, usm_number
tb <- create_tibble(USM_list_1996,2,6,sim_data)
tb

## # A tibble: 3,468 x 13
##    Name  Date                  jul lai_n masec_n mafruit  HR_1  HR_2  HR_3  HR_4
##    <chr> <dttm>              <int> <dbl>   <dbl>   <dbl> <dbl> <dbl> <dbl> <dbl>
##  1 bo96~ 1996-01-01 00:00:00  1996     1       1       1     0     0     0  31.6
##  2 bo96~ 1996-01-02 00:00:00  1996     1       2       2     0     0     0  31.6
##  3 bo96~ 1996-01-03 00:00:00  1996     1       3       3     0     0     0  31.6
##  4 bo96~ 1996-01-04 00:00:00  1996     1       4       4     0     0     0  31.6
##  5 bo96~ 1996-01-05 00:00:00  1996     1       5       5     0     0     0  31.6
##  6 bo96~ 1996-01-06 00:00:00  1996     1       6       6     0     0     0  31.6
##  7 bo96~ 1996-01-07 00:00:00  1996     1       7       7     0     0     0  31.6
##  8 bo96~ 1996-01-08 00:00:00  1996     1       8       8     0     0     0  31.6
##  9 bo96~ 1996-01-09 00:00:00  1996     1       9       9     0     0     0  31.6
## 10 bo96~ 1996-01-10 00:00:00  1996     1      10      10     0     0     0  31.6
## # ... with 3,458 more rows, and 3 more variables: HR_5 <dbl>, resmes <dbl>,
## #   DoE <int>
…
4 Use cases

First, let us describe the use cases. There are 3 use cases : Optimization, Multi-Simulation and Analysis. Each use case has one function matching with the storage type, so each use case has two functions, one per storage method.

Now, lets see what returns each function and how they are called.

4.1 Optimizations use case

Were beginning with the optimizations use case. This function returns all the values for a variable with the dates. It takes as parameters a DoE level, a Usm name and a variable name.

res <- tibble_get_dates_and_var_values(tb,1,"bo96iN+_2","HR_1")
res

## # A tibble: 289 x 2
##    Date                 HR_1
##    <dttm>              <dbl>
##  1 1996-01-01 00:00:00     0
##  2 1996-01-02 00:00:00     0
##  3 1996-01-03 00:00:00     0
##  4 1996-01-04 00:00:00     0
##  5 1996-01-05 00:00:00     0
##  6 1996-01-06 00:00:00     0
##  7 1996-01-07 00:00:00     0
##  8 1996-01-08 00:00:00     0
##  9 1996-01-09 00:00:00     0
## 10 1996-01-10 00:00:00     0
## # ... with 279 more rows

li2 <- list_get_dates_and_var_values(li,1,"bo96iN+_2","HR_1")
li2

## # A tibble: 289 x 2
##    Date                 HR_1
##    <dttm>              <dbl>
##  1 1996-01-01 00:00:00  31.6
##  2 1996-01-02 00:00:00  31.6
##  3 1996-01-03 00:00:00  31.6
##  4 1996-01-04 00:00:00  31.6
##  5 1996-01-05 00:00:00  31.6
##  6 1996-01-06 00:00:00  31.6
##  7 1996-01-07 00:00:00  31.6
##  8 1996-01-08 00:00:00  31.6
##  9 1996-01-09 00:00:00  31.6
## 10 1996-01-10 00:00:00  31.6
## # ... with 279 more rows
…
